def scene1():
    import time
    print("""WELCOME TO THE ADVENTURE GAME!
        Let's start the action! ☆-🎬-☆
 
       bob was awaking by a strainge noise outside of his camping site. he is frightend by it and realize 
       his friends are no where to be seen. should he stay or investicate?
 
        Type your choice: Stay or investigate ?
    """)
 
    c1 = input()
    time.sleep(2)
    ans = 'incorrect'
    while(ans=='incorrect'):
        if(c1.upper()=="STAY"):
            print("\nBob has decided to stay in his tent. when the morning sun rises, bob exits his tent and found nothing butr footprints of some animal and seems to be humans trails as well as blood stains. he is lost for words. try again.")
            ans = 'correct'
        elif(c1.upper()=="INVESTIGATE"):
            print("bob exits the tent and stand up from the tent.")
            ans='correct'
            scene2()
        else:
            print("ENTER THE CORRECT CHOICE! Stay or investigate?")
            c1 = input()
def scene2():
    import time
    print("""
            while he get out of the tent, bob notice that his friends is fighting a monster in whichnotice tha theres a portal behind
            the monster/ should bob pick his frineds or ignore and run away?
 
            Type your choice: Pick or Ignore?
 
            """)
    time.sleep(2)
    c1 = input()
    ans = 'incorrect'
    while(ans=='incorrect'):
        if(c1.upper()=="PICK"):
            print("""\nThe moment bob realize his friends are in danger, he went to help but during the fight the monster swings his arm and push bob into the portal. bob now realize he is in a portal! all fo the sudden he pass out.""")
            time.sleep(2)
            print("""\n bob wakes up from a sudden comma he notice that he is still in the portal.""")
            ans = 'correct'
            pick="True"
        elif(c1.upper()=='IGNORE'):
            print("""\nbob decided to ignore his instict and listen to his friends. he ran away to the portal but plans to have revenges
                  """)
            ans='correct'
            pick="False"
        else:
            print("Wrong Input! Enter pick or ignore?")
            c1=input()
    time.sleep(2)
    scene3(pick)
def scene3(pick_value):
    import time
    print("""\n\nAfter entering the portal, bob has notice that the portal has different enterances and exits but not able to access due to not connected to his.""")
    time.sleep(2)
    if(pick_value=="True"):
        time.sleep(2)
        print("""the area around him is colorful and bright.""")
        time.sleep(2)
        print("\n during this he see the light to the new world")
    elif(pick_value=="False"):
        print("The monster attacked bob and his friends. sadly everyone is damage from the fight that only bob was escape. soon bob has died due to blood lost")
scene1()
print("\n\n")
print("=================================END OF CHAPTER 1=================================")

def scene_one():
    # Code for scene one goes here
    # At the end of scene one, you decide to go to scene two
    input("Press enter to continue to the next scene...")
    scene_two()

def scene_two():
    print("You have entered scene two.")
    # Add the details of scene two here
    # For example, describe the setting and present choices to the player
    choice = input("What do you do? (Option1/Option2): ")
    if choice.lower() == "option1":
        # Code for option1 goes here
        pass
    elif choice.lower() == "option2":
        # Code for option2 goes here
        pass
    else:
        print("Invalid choice. Please try again.")
        scene_two()  # Call scene_two again if the input is invalid

# Start the game
scene_one()
def chapter2():
    print("As the dawn breaks, bob find himself in a dense forest, the remnants of last night's campfire slowly dying out.")
    print("The adventure continues as he stand at a crossroads. One path leads deeper into the thicket,")
    print("while the other winds up a rocky hill. his choices will determine your fate.")
    print("which place does he choose to go 'into the forest' or 'up the hill'?")
    
    choice = input("> ").lower()
    if choice == 'into the forest':
        forest_path()
    elif choice == 'up the hill':
        hill_path()
    else:
        print("That's not a path you can take. Please choose 'into the forest' or 'up the hill'.")
        chapter2()

def forest_path():
    print("You cautiously step into the forest, alert to every sound.")
    # Continue the story and gameplay mechanics for the forest path

def hill_path():
    print("You ascend the hill, the view expanding with every step.")
    # Continue the story and gameplay mechanics for the hill path

# Start Chapter 2
chapter2()
